{
  "realm": "AUTH_REALM",
  "auth-server-url": "AUTH_HOST",
  "proxy-url": "AUTH_PROXY",
  "ssl-required": "external",
  "resource": "CLIENT_ID",
  "credentials": {
    "secret": "CLIENT_SECRET"
  },
  "confidential-port": 0,
  "policy-enforcer": {}
}